PRONOSTICO DE LA DEMANDA
…
2. IDENTIFICACION DEL PROBLEMA

Debido a la coyuntura nacional que se atraviesa el país, la empresa Serigrafía Geele SRL ve prudente realizar un ponostico preciso de la demanda de productos impresos en su línea de “Balde 18L”, ya que en los ultimos periodos se generó demandas insatisfechas y sobrestock a causa del efecto látigo que atraviesan nuestros principales clientes, generando así variaciones de flujo económico.

ANALISIS

Se tiene una base de datos donde se describe como variable endógena a la CANTIDAD DEMANDADA y variables exógenas: Cantidad de pintura en Kg, Envases disponibles, numero de personas, malla de impresión en metros y finalmente el área de impresión en metros cuadrados.

library(readxl)
DEMANDA <- read_excel("C:/TRABAJO FINAL RSTUDIO/DEMANDA.xlsx", 
    range = "A1:F31")
DEMANDA[c(1:31),]

## # A tibble: 31 x 6
##    Pintura Envase  MMOO Malla  Area `Cantidad Demandada`
##      <dbl>  <dbl> <dbl> <dbl> <dbl>                <dbl>
##  1    35    19500    10    18  4900                20000
##  2    28.5  15000     8    15  3500                15000
##  3    36.8  20000    10    20  4500                20000
##  4    33.8  20000    11    21  5300                21800
##  5    38.6  21000    11    20  5000                21400
##  6    33.8  17200    10    15  4000                16800
##  7    30.2  18000     9    20  4250                17800
##  8    27.6  20000    10    20  4700                19600
##  9    26.2  13500     8    15  3300                13700
## 10    37.9  20000    11    25  5200                21600
## # ... with 21 more rows
…
DEMANDA1 <- read_excel("C:/TRABAJO FINAL RSTUDIO/DEMANDA.xlsx", 
    range = "F1:G31")
DEMANDA1[c(1,2)]

## # A tibble: 30 x 2
##    `Cantidad Demandada` Periodo
##                   <dbl>   <dbl>
##  1                20000       1
##  2                15000       2
##  3                20000       3
##  4                21800       4
##  5                21400       5
##  6                16800       6
##  7                17800       7
##  8                19600       8
##  9                13700       9
## 10                21600      10
## # ... with 20 more rows
…
